Contour Plots with ggplot2 | Vincenzo Coia
…
You can also make contour plots that aren’t a kernel density estimate (necessarily), using geom_contour(). This is based off of any bivariate function.

Basics

Suppose we want to make a contour plot of the bivariate function \[f(x, y) = x ^ 2 + \sin(y)\] over the rectangle \(-2<x<2\) and \(-5<y<5\).

Make a grid over the rectangle. It must be a grid – geom_contour() won’t work otherwise. The expand_grid() function is handy for this, filling in all combinations of its input.

f <- function(x, y) x ^ 2 + sin(y)
x <- seq(-2, 2, length.out = 100)
y <- seq(-5, 5, length.out = 100)
(dat <- expand_grid(x = x, y = y))

## # A tibble: 10,000 x 2
##        x     y
##    <dbl> <dbl>
##  1    -2 -5   
##  2    -2 -4.90
##  3    -2 -4.80
##  4    -2 -4.70
##  5    -2 -4.60
##  6    -2 -4.49
##  7    -2 -4.39
##  8    -2 -4.29
##  9    -2 -4.19
## 10    -2 -4.09
## # … with 9,990 more rows

Evaluate the function at each of the grid points. Make sure you end up with a data frame with three columns: two for the x and y coordinates, and one for the evaluated function (called z below).

(dat <- mutate(dat, z = f(x, y)))

## # A tibble: 10,000 x 3
##        x     y     z
##    <dbl> <dbl> <dbl>
##  1    -2 -5     4.96
##  2    -2 -4.90  4.98
##  3    -2 -4.80  5.00
##  4    -2 -4.70  5.00
##  5    -2 -4.60  4.99
##  6    -2 -4.49  4.98
##  7    -2 -4.39  4.95
##  8    -2 -4.29  4.91
##  9    -2 -4.19  4.87
## 10    -2 -4.09  4.81
## # … with 9,990 more rows
…
If you’d like, you can take a look at a 3D rendering of the volcano using the rgl package’s surface3d() function. The code for doing this is directly in the documentation of the surface3d() function.

In order to make a contour plot with ggplot2’s geom_contour(), we’ll first need to turn this into a tidy data frame with three columns. You could use as.vector(volcano) to get a vector of altitudes, and line that up with a grid laid out as two columns, but I’m not going to take any chances here, so I’ll opt to use pivot_longer(). We don’t know much about the latitude and longitude, so their values are arbitrary.

(volcano_tidy <- as_tibble(volcano, .name_repair = "universal") %>% 
    mutate(latitude = 1:n()) %>% 
    pivot_longer(!latitude, names_to = "longitude", values_to = "altitude"))

## # A tibble: 5,307 x 3
##    latitude longitude altitude
##       <int> <chr>        <dbl>
##  1        1 ...1           100
##  2        1 ...2           100
##  3        1 ...3           101
##  4        1 ...4           101
##  5        1 ...5           101
##  6        1 ...6           101
##  7        1 ...7           101
##  8        1 ...8           100
##  9        1 ...9           100
## 10        1 ...10          100
## # … with 5,297 more rows

Fix up the longitude (taking the negative to reverse the order, because data are provided as east to west):

(volcano_tidy <- volcano_tidy %>% 
    mutate(longitude = longitude %>% 
               str_remove("[\\.]{3}") %>%
               as.numeric() %>% 
               `-`()))

## # A tibble: 5,307 x 3
##    latitude longitude altitude
##       <int>     <dbl>    <dbl>
##  1        1        -1      100
##  2        1        -2      100
##  3        1        -3      101
##  4        1        -4      101
##  5        1        -5      101
##  6        1        -6      101
##  7        1        -7      101
##  8        1        -8      100
##  9        1        -9      100
## 10        1       -10      100
## # … with 5,297 more rows
…
